Segmentação de Clientes usando Análise RFM
…
top50_produto_categoria_tbl <-
    retails_dat %>%
    group_by(Description) %>%
    summarise(Total_Amount = sum(UnitPrice * Quantity)) %>%
    arrange(desc(Total_Amount)) %>%
    # top50 categoria de produto
    head(n = 50) %>%
    ungroup()

top50_produto_categoria_tbl

## # A tibble: 50 x 2
##    Description                          Total_Amount
##    <fct>                                       <dbl>
##  1 "REGENCY CAKESTAND 3 TIER"                132870.
##  2 "WHITE HANGING HEART T-LIGHT HOLDER"       93824.
##  3 "JUMBO BAG RED RETROSPOT"                  83237.
##  4 "PARTY BUNTING"                            67688.
##  5 "POSTAGE"                                  66710.
##  6 "ASSORTED COLOUR BIRD ORNAMENT"            56499.
##  7 "RABBIT NIGHT LIGHT"                       51138.
##  8 "CHILLI LIGHTS"                            45937.
##  9 "PAPER CHAIN KIT 50'S CHRISTMAS "          41500.
## 10 "PICNIC BASKET WICKER 60 PIECES"           39620.
## # ... with 40 more rows
…
Quantidade vendida por cada categoria de produto

top50_quantidade_produto_tbl <-
    retails_dat %>%
    group_by(Description) %>%
    summarise(total_quantity = sum(Quantity)) %>%
    arrange(desc(total_quantity)) %>%
    head(n = 50) %>%
    ungroup()

top50_quantidade_produto_tbl

## # A tibble: 50 x 2
##    Description                          total_quantity
##    <fct>                                         <int>
##  1 "WORLD WAR 2 GLIDERS ASSTD DESIGNS"           53215
##  2 "JUMBO BAG RED RETROSPOT"                     45066
##  3 "ASSORTED COLOUR BIRD ORNAMENT"               35314
##  4 "WHITE HANGING HEART T-LIGHT HOLDER"          34147
##  5 "PACK OF 72 RETROSPOT CAKE CASES"             33409
##  6 "POPCORN HOLDER"                              30504
##  7 "RABBIT NIGHT LIGHT"                          27094
##  8 "MINI PAINT SET VINTAGE "                     25880
##  9 "PACK OF 12 LONDON TISSUES "                  25321
## 10 "PACK OF 60 PINK PAISLEY CAKE CASES"          24163
## # ... with 40 more rows
…
